{
  "ru": {
    "header": {
      "list": "Список назначений платежа",
      "create": "Создать назначение платежа",
      "update": "Редактировать назначение платежа",
      "delete": "Удалить назначение платежа",
      "history": "История изменений",
      "income": "Доход",
      "outcome": "Расход"

    },
    "button": {
      "cancel": "Отмена",
      "create": "Создать",
      "update": "Обновить",
      "delete": "Удалить",
      "ok": "OK"
    },
    "placeholder": {
      "search": "Поиск"
    },
    "message": {
      "not_deletable": "Мы не можем удалить назначение платежа - оно используется в системе. Сначала все транзакции.",
      "approve_delete": "Вы уверены, что хотите удалить назначение платежа",
      "created": "Назначение платеже успешно создано",
      "updated": "Назначение платеже обновлено",
      "deleted": "Назначение платеже удалено"
    }
  },
  "en": {
    "header": {
      "list": "Pay purposes list",
      "create": "Pay purpose create",
      "update": "Pay purpose update",
      "delete": "Pay purpose delete",
      "history": "Log",
      "income": "Income",
      "outcome": "Outcome"
    },
    "button": {
      "cancel": "Cancel",
      "create": "Create",
      "update": "Update",
      "delete": "Delete",
      "ok": "OK"
    },
    "placeholder": {
      "search": "Search"
    },
    "message": {
      "not_deletable": "We can't delete this pay purpose — it's used by the app. Before continue — delete all transactions.",
      "approve_delete": "Are you sure you want to delete pay purpose",
      "created": "Pay purpose is successfully created",
      "updated": "Pay purpose is successfully updated",
      "deleted": "Pay purpose is successfully deleted"
    }
  }
}

