{
  "ru": {
    "header": {
      "list": "Список договоров",
      "create": "Создать договор",
      "update": "Редактировать договор",
      "delete": "Удалить договор",
      "history": "История изменений"
    },
    "button": {
      "cancel": "Отмена",
      "create": "Создать",
      "update": "Обновить",
      "delete": "Удалить",
      "ok": "OK"
    },
    "placeholder": {
      "search": "Поиск"
    },
    "message": {
      "not_deletable": "Мы не можем удалить договор - он используется в системе. Сначала удалите его из всех транзакций.",
      "approve_delete": "Вы уверены, что хотите удалить договор",
      "created": "Договор успешно создан",
      "updated": "Договор успешно обновлен",
      "deleted": "Договор успешно удален",
      "to_upload": "Нажмите, чтобы загрузить или просто перенесите файлы",
      "still_loading": "Файлы еще загружаются"
    },
    "fields": {
      "status": "Статус документа",
      "mycompany": "Моя компания",
      "subcontractor_role": "Тип контрагента",
      "subcontractor": "Контрагент",
      "type": "Тип документа",
      "signed_at": "Дата подписания",
      "name": "Номер документа",
      "validity_period_from": "Начало действия",
      "validity_period_till": "Окончание действия",
      "prolongation_type": "Условия продления",
      "prolongation_alert": "Начать продлевать",
      "description": "Описание",
      "project": "Связан с Проектом",
      "transaction": "Связан с Транзакцией",
      "report": "Связан с Отчетом",
      "doc_template": "Шаблон для генерации"
    }
  },
  "en": {
    "header": {
      "list": "Agreements list",
      "create": "Agreement create",
      "update": "Agreement update",
      "delete": "Agreement delete",
      "history": "Log"
    },
    "button": {
      "cancel": "Cancel",
      "create": "Create",
      "update": "Update",
      "delete": "Delete",
      "ok": "OK"
    },
    "placeholder": {
      "search": "Search"
    },
    "message": {
      "not_deletable": "We can't delete this Agreement — it's used by the app. Before continue — delete it from all transactions.",
      "approve_delete": "Are you sure you want to delete Agreement",
      "created": "Agreement is successfully created",
      "updated": "Agreement is successfully updated",
      "deleted": "Agreement is successfully deleted",
      "to_upload": "Click here to upload files or just drop them here",
      "still_loading": "Files are still uploading"
    },
    "fields": {
      "status": "Document status",
      "mycompany": "My company",
      "subcontractor_role": "Subcontractor role",
      "subcontractor": "Subcontractor",
      "type": "Document type",
      "signed_at": "Signed at",
      "name": "Document number",
      "validity_period_from": "Valid from",
      "validity_period_till": "Valid till",
      "prolongation_type": "Prolongation type",
      "prolongation_alert": "Prolongation alert",
      "description": "Description",
      "project": "Connected with a project",
      "transaction": "Connected with a transaction",
      "report": "Connected with a report",
      "doc_template": "Docgen template"
    }
  }
}

