{
  "ru": {
    "header": {
      "list": "Список проектов",
      "list_base": "Базовые характеристики",
      "list_estimates": "Предпродажная оценка",
      "create": "Создать проект",
      "update_base": "Редактировать проект",
      "update_estimates": "Редактировать оценку",
      "delete": "Удалить проект",
      "history": "История изменений"
    },
    "interface": {
      "settings": "Настроить интерфейс",
      "filter": "Фильтр по умолчанию"
    },
    "button": {
      "cancel": "Отмена",
      "create": "Пригласить",
      "update": "Обновить",
      "delete": "Удалить",
      "ok": "OK"
    },
    "placeholder": {
      "search": "Поиск"
    },
    "message": {
      "not_deletable": "Мы не можем удалить проект - он используется в системе.",
      "approve_delete": "Вы уверены, что хотите удалить проект",
      "created": "Проект успешно создан",
      "updated_base": "Проект успешно обновлен",
      "updated_estimates": "Оценка успешно обновлена",
      "deleted": "Проект успешно удален",
      "settings": "Настройки успешно обновлены"
    },
    "statistics": {
      "header": "Статистика",
      "currency": "Валюта",
      "income": "Выручка",
      "outcome": "Расход",
      "profit": "Прибыль",
      "profilability": "РВП"
    }
  },
  "en": {
    "header": {
      "list": "Projects list",
      "list_base": "Project",
      "list_estimates": "Estimates",
      "create": "Project create",
      "update_base": "Project edit",
      "update_estimates": "Project estimates edit",
      "delete": "Project delete",
      "history": "Log"
    },
    "interface": {
      "settings": "Interface settings",
      "filter": "Default filter"
    },
    "button": {
      "cancel": "Cancel",
      "create": "Create",
      "update": "Update",
      "delete": "Delete",
      "ok": "OK"
    },
    "placeholder": {
      "search": "Search"
    },
    "message": {
      "not_deletable": "We can't delete this Project — it's used by the app. Before continue — delete it from all transactions.",
      "approve_delete": "Are you sure you want to delete Project",
      "created": "Project is successfully created",
      "updated_base": "Project is successfully updated",
      "updated_estimates": "Estimates is successfully updated",
      "deleted": "Project is successfully deleted",
      "settings": "Settings were successfully updated"
    },
    "statistics": {
      "header": "Statistics",
      "currency": "Currency",
      "income": "Income",
      "outcome": "Outcome",
      "profit": "Profit",
      "profilability": "Profitability"
    }
  }
}

