{
  "ru": {
    "header": {
      "list": "Список категорий продуктов",
      "create": "Создать категорию продуктов",
      "update": "Редактировать категорию продуктов",
      "delete": "Удалить категорию продуктов",
      "history": "История изменений"
    },
    "button": {
      "cancel": "Отмена",
      "create": "Создать",
      "update": "Обновить",
      "delete": "Удалить",
      "ok": "OK"
    },
    "placeholder": {
      "search": "Поиск"
    },
    "message": {
      "not_deletable": "Мы не можем удалить категорию продуктов - она используется в системе. Сначала удалите все связанные проекты.",
      "approve_delete": "Вы уверены, что хотите удалить категорию продуктов",
      "created": "Категория продуктов успешно создана",
      "updated": "Категория продуктов успешно обновлена",
      "deleted": "Категория продуктов успешно удалена"
    }
  },
  "en": {
    "header": {
      "list": "Product categories list",
      "create": "Product category create",
      "update": "Product category update",
      "delete": "Product category delete",
      "history": "Log"
    },
    "button": {
      "cancel": "Cancel",
      "create": "Create",
      "update": "Update",
      "delete": "Delete",
      "ok": "OK"
    },
    "placeholder": {
      "search": "Search"
    },
    "message": {
      "not_deletable": "We can't delete this Product category  — it's used by the app. Before continue — delete all connected projects.",
      "approve_delete": "Are you sure you want to delete Product category ",
      "created": "Product category is successfully created",
      "updated": "Product category is successfully updated",
      "deleted": "Product category is successfully deleted"
    }
  }
}

