{
  "ru": {
    "header": {
      "list": "Отчеты",
      "create": "Добавить отчет",
      "update": "Редактировать отчет",
      "delete": "Удалить отчет",
      "history": "История изменений"
    },
    "table": {
      "name": "Название",
      "cost": "Стоимость часа"
    },
    "button": {
      "cancel": "Отмена",
      "create": "Создать",
      "update": "Обновить",
      "delete": "Удалить",
      "ok": "OK"
    },
    "placeholder": {
      "search": "Поиск"
    },
    "message": {
      "not_deletable": "Мы не можем удалить отчет - он используется в системе. ",
      "approve_delete": "Вы уверены, что хотите удалить отчет",
      "created": "Отчет успешно добавлен",
      "updated": "Отчет успешно обновлен",
      "deleted": "Отчет успешно удален"
    }
  },
  "en": {
    "header": {
      "list": "Reports",
      "create": "Report create",
      "update": "Report update",
      "delete": "Report delete",
      "history": "Log"
    },
    "table": {
      "name": "Name",
      "cost": "Cost of an hour"
    },
    "button": {
      "cancel": "Cancel",
      "create": "Create",
      "update": "Update",
      "delete": "Delete",
      "ok": "OK"
    },
    "placeholder": {
      "search": "Search"
    },
    "message": {
      "not_deletable": "We can't delete this Report — it's used by the app. ",
      "approve_delete": "Are you sure you want to delete Report",
      "created": "Report is successfully added",
      "updated": "Report is successfully updated",
      "deleted": "Report is successfully removed"
    }
  }
}

