{
  "ru": {
    "header": {
      "list": "Список иточников лидов",
      "create": "Создать источник лидов",
      "update": "Редактировать источник лидов",
      "delete": "Удалить источник лидов",
      "history": "История изменений"
    },
    "button": {
      "cancel": "Отмена",
      "create": "Создать",
      "update": "Обновить",
      "delete": "Удалить",
      "ok": "OK"
    },
    "placeholder": {
      "search": "Поиск"
    },
    "message": {
      "not_deletable": "Мы не можем удалить формат источник лидов - он используется в системе. Сначала удалите все связанные проекты.",
      "approve_delete": "Вы уверены, что хотите удалить источник лидов",
      "created": "Источник лидов успешно создан",
      "updated": "Источник лидов успешно обновлен",
      "deleted": "Источник лидов успешно удален"
    }
  },
  "en": {
    "header": {
      "list": "NewBusiness sources list",
      "create": "NewBusiness source create",
      "update": "NewBusiness source update",
      "delete": "NewBusiness source delete",
      "history": "Log"
    },
    "button": {
      "cancel": "Cancel",
      "create": "Create",
      "update": "Update",
      "delete": "Delete",
      "ok": "OK"
    },
    "placeholder": {
      "search": "Search"
    },
    "message": {
      "not_deletable": "We can't delete this NewBusiness source  — it's used by the app. Before continue — delete all connected projects.",
      "approve_delete": "Are you sure you want to delete NewBusiness source",
      "created": "NewBusiness source is successfully created",
      "updated": "NewBusiness source is successfully updated",
      "deleted": "NewBusiness source is successfully deleted"
    }
  }
}

